…
I realized that I ran into an issue where I couldn't break down the umbrella change by each commute this way. I need to add a column that is the commute so I can cumsum() to add changes.

Building table with commutes

Arrage is used to make sure it goes in order of each trial, dotw, then Morning and Evening rain = chance of rain for a given morning or evening. 50% morning, 40% evening

crossing(trial = 1:5,
         dotw = 1:5,
         commute = c("Morning", "Evening")) %>%
  arrange(trial, dotw, factor(commute, levels = c("Morning", "Evening"))) %>%
  mutate(rain = ifelse(commute == "Morning", sample(0:1, size = n(), replace = TRUE, prob = c(0.5, 0.5)),
                       sample(0:1, size = n(), replace = TRUE, prob = c(0.6, 0.4))))

## # A tibble: 50 x 4
##    trial  dotw commute  rain
##    <int> <int> <chr>   <int>
##  1     1     1 Morning     1
##  2     1     1 Evening     1
##  3     1     2 Morning     1
##  4     1     2 Evening     1
##  5     1     3 Morning     1
##  6     1     3 Evening     1
##  7     1     4 Morning     0
##  8     1     4 Evening     0
##  9     1     5 Morning     1
## 10     1     5 Evening     1
## # ... with 40 more rows
…
         commute = c("Morning", "Evening")) %>%
  arrange(trial, dotw, factor(commute, levels = c("Morning", "Evening"))) %>%
  mutate(rain = ifelse(commute == "Morning", sample(0:1, size = n(), replace = TRUE, prob = c(0.5, 0.5)),
                       sample(0:1, size = n(), replace = TRUE, prob = c(0.6, 0.4))),
         home_delta = ifelse(commute == "Morning" & rain == 1, -1,
                             ifelse(commute == "Morning" & rain == 0, 0,
                                    ifelse(commute == "Evening" & rain == 1, +1,
                                           ifelse(commute == "Evening" & rain == 0, 0, "ERROR")))),
         office_delta = ifelse(commute == "Morning" & rain == 1, +1,
                             ifelse(commute == "Morning" & rain == 0, 0,
                                    ifelse(commute == "Evening" & rain == 1, -1,
                                           ifelse(commute == "Evening" & rain == 0, 0, "ERROR"))))
         )

## # A tibble: 50 x 6
##    trial  dotw commute  rain home_delta office_delta
##    <int> <int> <chr>   <int> <chr>      <chr>       
##  1     1     1 Morning     0 0          0           
##  2     1     1 Evening     0 0          0           
##  3     1     2 Morning     0 0          0           
##  4     1     2 Evening     1 1          -1          
##  5     1     3 Morning     0 0          0           
##  6     1     3 Evening     0 0          0           
##  7     1     4 Morning     1 -1         1           
##  8     1     4 Evening     0 0          0           
##  9     1     5 Morning     0 0          0           
## 10     1     5 Evening     1 1          -1          
## # ... with 40 more rows
…
                       sample(0:1, size = n(), replace = TRUE, prob = c(0.6, 0.4))),
         home_delta = ifelse(commute == "Morning" & rain == 1, -1,
                             ifelse(commute == "Morning" & rain == 0, 0,
                                    ifelse(commute == "Evening" & rain == 1, +1,
                                           ifelse(commute == "Evening" & rain == 0, 0, "ERROR")))),
         office_delta = ifelse(commute == "Morning" & rain == 1, +1,
                             ifelse(commute == "Morning" & rain == 0, 0,
                                    ifelse(commute == "Evening" & rain == 1, -1,
                                           ifelse(commute == "Evening" & rain == 0, 0, "ERROR"))))
         ) %>%
  group_by(trial) %>%
  mutate(umb_home = 2 + cumsum(home_delta),
         umb_office = 1 + cumsum(office_delta))

## # A tibble: 50 x 8
## # Groups:   trial [5]
##    trial  dotw commute  rain home_delta office_delta umb_home umb_office
##    <int> <int> <chr>   <int> <chr>      <chr>           <dbl>      <dbl>
##  1     1     1 Morning     1 -1         1                   1          2
##  2     1     1 Evening     0 0          0                   1          2
##  3     1     2 Morning     0 0          0                   1          2
##  4     1     2 Evening     1 1          -1                  2          1
##  5     1     3 Morning     0 0          0                   2          1
##  6     1     3 Evening     1 1          -1                  3          0
##  7     1     4 Morning     0 0          0                   3          0
##  8     1     4 Evening     0 0          0                   3          0
##  9     1     5 Morning     1 -1         1                   2          1
## 10     1     5 Evening     0 0          0                   2          1
## # ... with 40 more rows
…
David Robinson Technique

Adding a row for each commute

Using rbinom(n(), 1, ifelse(commute == morn, .5, .4)) This is a clever solution that was used in TT

crossing(trial = 1:3,
         dotw = 1:5,
         commute = c("Morning", "Evening")) %>%
  arrange(trial, dotw, factor(commute, levels = c("Morning", "Evening"))) %>%
  mutate(rain = rbinom(n(), 1, ifelse(commute == "Morning", 0.5, 0.4)))

## # A tibble: 30 x 4
##    trial  dotw commute  rain
##    <int> <int> <chr>   <int>
##  1     1     1 Morning     0
##  2     1     1 Evening     0
##  3     1     2 Morning     0
##  4     1     2 Evening     0
##  5     1     3 Morning     1
##  6     1     3 Evening     1
##  7     1     4 Morning     1
##  8     1     4 Evening     0
##  9     1     5 Morning     0
## 10     1     5 Evening     0
## # ... with 20 more rows
…
